<svg width="22" height="14" viewBox="0 0 22 14" fill="none" xmlns="http://www.w3.org/2000/svg">
<line x1="1" y1="1" x2="21" y2="1" stroke="white" stroke-width="2" stroke-linecap="round"/>
<line x1="1" y1="7" x2="15.5" y2="7" stroke="white" stroke-width="2" stroke-linecap="round"/>
<line x1="1" y1="13" x2="10" y2="13" stroke="white" stroke-width="2" stroke-linecap="round"/>
</svg>
